ring_counter/ring/counter_tracefile.vcd
$date
     Sep 19, 2013       15:17:46
$end

$version
              SystemC 2.3.0-ASI --- Sep 10 2012 16:44:06
$end

$timescale
     1 ps
$end

$scope module SystemC $end
$var wire    1  aaa  clock       $end
$var wire    6  aab  counting [5:0]  $end
$upscope $end
$enddefinitions  $end

$comment
All initial values are dumped below at time 0 sec = 0 timescale units.
$end

$dumpvars
1aaa
b10 aab
$end

#10000
0aaa

#20000
1aaa
b100 aab

#30000
0aaa

#40000
1aaa
b1000 aab

#50000
0aaa

#60000
1aaa
b10000 aab

#70000
0aaa

#80000
1aaa
b100000 aab

#90000
0aaa

#100000
1aaa
b10000 aab

#110000
0aaa

#120000
1aaa
b1000 aab

#130000
0aaa

#140000
1aaa
b100 aab

#150000
0aaa

#160000
1aaa
b10 aab

#170000
0aaa

#180000
1aaa
b1 aab

#190000
0aaa

#200000
1aaa
b10 aab

#210000
0aaa

#220000
1aaa
b100 aab

#230000
0aaa

#240000
1aaa
b1000 aab

#250000
0aaa

#260000
1aaa
b10000 aab

#270000
0aaa

#280000
1aaa
b100000 aab

#290000
0aaa

#300000
1aaa
b10000 aab

#310000
0aaa

#320000
1aaa
b1000 aab

#330000
0aaa

#340000
1aaa
b100 aab

#350000
0aaa

#360000
1aaa
b10 aab

#370000
0aaa

#380000
1aaa
b1 aab

#390000
0aaa

#400000
1aaa
b10 aab

#410000
0aaa

#420000
1aaa
b100 aab

#430000
0aaa

#440000
1aaa
b1000 aab

#450000
0aaa

#460000
1aaa
b10000 aab

#470000
0aaa

#480000
1aaa
b100000 aab

#490000
0aaa

#500000
1aaa
b10000 aab

#510000
0aaa

#520000
1aaa
b1000 aab

#530000
0aaa

#540000
1aaa
b100 aab

#550000
0aaa

#560000
1aaa
b10 aab

#570000
0aaa

#580000
1aaa
b1 aab

#590000
0aaa

#600000
1aaa
b10 aab

#610000
0aaa

#620000
1aaa
b100 aab

#630000
0aaa

#640000
1aaa
b1000 aab

#650000
0aaa

#660000
1aaa
b10000 aab

#670000
0aaa

#680000
1aaa
b100000 aab

#690000
0aaa

#700000
1aaa
b10000 aab

#710000
0aaa

#720000
1aaa
b1000 aab

#730000
0aaa

#740000
1aaa
b100 aab

#750000
0aaa

#760000
1aaa
b10 aab

#770000
0aaa

#780000
1aaa
b1 aab

#790000
0aaa

#800000
1aaa
b10 aab

#810000
0aaa

#820000
1aaa
b100 aab

#830000
0aaa

#840000
1aaa
b1000 aab

#850000
0aaa

#860000
1aaa
b10000 aab

#870000
0aaa

#880000
1aaa
b100000 aab

#890000
0aaa

#900000
1aaa
b10000 aab

#910000
0aaa

#920000
1aaa
b1000 aab

#930000
0aaa

#940000
1aaa
b100 aab

#950000
0aaa

#960000
1aaa
b10 aab

#970000
0aaa

#980000
1aaa
b1 aab

#990000
0aaa

#1000000
1aaa
b10 aab

#1010000
0aaa

#1020000
1aaa
b100 aab

#1030000
0aaa

#1040000
1aaa
b1000 aab

#1050000
0aaa

#1060000
1aaa
b10000 aab

#1070000
0aaa

#1080000
1aaa
b100000 aab

#1090000
0aaa

#1100000
1aaa
b10000 aab

#1110000
0aaa

#1120000
1aaa
b1000 aab

#1130000
0aaa

#1140000
1aaa
b100 aab

#1150000
0aaa

#1160000
1aaa
b10 aab

#1170000
0aaa

#1180000
1aaa
b1 aab

#1190000
0aaa

#1200000
1aaa
b10 aab

#1210000
0aaa

#1220000
1aaa
b100 aab

#1230000
0aaa

#1240000
1aaa
b1000 aab

#1250000
0aaa

#1260000
1aaa
b10000 aab

